rtl/singlecycle_results.vcd
$date
	Sat Mar 15 08:52:10 2025
$end
$version
	Icarus Verilog
$end
$timescale
	1ps
$end
$scope module stimulus $end
$var parameter 32 ! DATA_WIDTH $end
$var reg 1 " clk $end
$var reg 1 # en $end
$var reg 1 $ rstn $end
$var integer 32 % i [31:0] $end
$scope module uut $end
$var wire 1 " clk $end
$var wire 1 # en $end
$var wire 1 $ rstn $end
$var wire 1 & zero $end
$var wire 5 ' rs2 [4:0] $end
$var wire 5 ( rs1 [4:0] $end
$var wire 5 ) rd [4:0] $end
$var wire 32 * pc_next [31:0] $end
$var wire 32 + pc [31:0] $end
$var wire 7 , op [6:0] $end
$var wire 32 - instruction [31:0] $end
$var wire 32 . immediate [31:0] $end
$var wire 1 / funct7 $end
$var wire 3 0 funct3 [2:0] $end
$var wire 32 1 WD3 [31:0] $end
$var wire 32 2 SrcB [31:0] $end
$var wire 2 3 ResultSrc [1:0] $end
$var wire 1 4 RegWrite $end
$var wire 32 5 ReadData [31:0] $end
$var wire 32 6 RD2 [31:0] $end
$var wire 32 7 RD1 [31:0] $end
$var wire 32 8 PCTarget [31:0] $end
$var wire 1 9 PCSrc $end
$var wire 32 : PCPlus4 [31:0] $end
$var wire 1 ; MemWrite $end
$var wire 2 < ImmSrc [1:0] $end
$var wire 32 = ImmExt [31:0] $end
$var wire 1 > ALUSrc $end
$var wire 32 ? ALUResult [31:0] $end
$var wire 3 @ ALUControl [2:0] $end
$var parameter 32 A ADDRESS_BIT_WIDTH $end
$var parameter 32 B DATA_MEM_CAPACITY $end
$var parameter 32 C DATA_WIDTH $end
$var parameter 32 D INST_MEM_CAPACITY $end
$var parameter 32 E NB_OF_REGS $end
$scope module ADDER_1 $end
$var wire 32 F b [31:0] $end
$var wire 1 # en $end
$var wire 1 $ rstn $end
$var wire 32 G y [31:0] $end
$var wire 32 H a [31:0] $end
$var parameter 32 I DATA_WIDTH $end
$upscope $end
$scope module ADDER_2 $end
$var wire 1 # en $end
$var wire 1 $ rstn $end
$var wire 32 J y [31:0] $end
$var wire 32 K b [31:0] $end
$var wire 32 L a [31:0] $end
$var parameter 32 M DATA_WIDTH $end
$upscope $end
$scope module ALU $end
$var wire 1 # en $end
$var wire 1 $ rstn $end
$var wire 1 & zero $end
$var wire 32 N srcb [31:0] $end
$var wire 32 O srca [31:0] $end
$var wire 3 P control [2:0] $end
$var parameter 32 Q DATA_WIDTH $end
$var parameter 3 R OP_ADD $end
$var parameter 3 S OP_AND $end
$var parameter 3 T OP_OR $end
$var parameter 3 U OP_SLT $end
$var parameter 3 V OP_SUB $end
$var reg 32 W y [31:0] $end
$upscope $end
$scope module CU $end
$var wire 1 " clk $end
$var wire 1 # en $end
$var wire 3 X funct3 [2:0] $end
$var wire 1 / funct7 $end
$var wire 7 Y op [6:0] $end
$var wire 1 $ rstn $end
$var wire 1 & zero $end
$var wire 1 Z op_5 $end
$var wire 1 [ funct7_5 $end
$var wire 3 \ func3_2_0 [2:0] $end
$var wire 1 9 PCSrc $end
$var parameter 32 ] DATA_WIDTH $end
$var parameter 3 ^ OP_ADD $end
$var parameter 3 _ OP_AND $end
$var parameter 3 ` OP_OR $end
$var parameter 3 a OP_SLT $end
$var parameter 3 b OP_SUB $end
$var parameter 7 c R_type $end
$var parameter 7 d addi $end
$var parameter 7 e beq $end
$var parameter 7 f jal $end
$var parameter 7 g lw $end
$var parameter 7 h sw $end
$var reg 3 i ALUControl [2:0] $end
$var reg 3 j ALUOp [2:0] $end
$var reg 1 > ALUSrc $end
$var reg 1 k Branch $end
$var reg 2 l ImmSrc [1:0] $end
$var reg 1 m Jump $end
$var reg 1 ; MemWrite $end
$var reg 1 4 RegWrite $end
$var reg 2 n ResultSrc [1:0] $end
$upscope $end
$scope module DATA_MEMORY $end
$var wire 32 o A [31:0] $end
$var wire 1 ; WE $end
$var wire 1 " clk $end
$var wire 1 # en $end
$var wire 1 $ rstn $end
$var wire 32 p WD [31:0] $end
$var wire 32 q RD [31:0] $end
$var parameter 32 r DATA_WIDTH $end
$var parameter 32 s MEM_CAPACITY $end
$var integer 32 t i [31:0] $end
$upscope $end
$scope module EXT $end
$var wire 2 u ImmSrc [1:0] $end
$var wire 1 # en $end
$var wire 1 $ rstn $end
$var wire 32 v xin [31:0] $end
$var parameter 32 w DATA_WIDTH $end
$var reg 32 x y [31:0] $end
$upscope $end
$scope module MUX2_PC $end
$var wire 32 y a [31:0] $end
$var wire 32 z b [31:0] $end
$var wire 1 # en $end
$var wire 1 $ rstn $end
$var wire 1 9 sel $end
$var wire 32 { y [31:0] $end
$var parameter 32 | DATA_WIDTH $end
$upscope $end
$scope module MUX2_Result $end
$var wire 32 } a [31:0] $end
$var wire 32 ~ b [31:0] $end
$var wire 32 !" c [31:0] $end
$var wire 1 # en $end
$var wire 1 $ rstn $end
$var wire 2 "" sel [1:0] $end
$var parameter 32 #" DATA_WIDTH $end
$var reg 32 $" y [31:0] $end
$upscope $end
$scope module MUX2_srcb $end
$var wire 32 %" b [31:0] $end
$var wire 1 # en $end
$var wire 1 $ rstn $end
$var wire 1 > sel $end
$var wire 32 &" y [31:0] $end
$var wire 32 '" a [31:0] $end
$var parameter 32 (" DATA_WIDTH $end
$upscope $end
$scope module PC $end
$var wire 1 " clk $end
$var wire 1 # en $end
$var wire 32 )" pc_next [31:0] $end
$var wire 1 $ rstn $end
$var parameter 32 *" DATA_WIDTH $end
$var reg 32 +" pc [31:0] $end
$upscope $end
$scope module REG_FILE $end
$var wire 5 ," A1 [4:0] $end
$var wire 5 -" A2 [4:0] $end
$var wire 5 ." A3 [4:0] $end
$var wire 32 /" WD3 [31:0] $end
$var wire 1 4 WE3 $end
$var wire 1 " clk $end
$var wire 1 # en $end
$var wire 1 $ rstn $end
$var wire 32 0" RD2 [31:0] $end
$var wire 32 1" RD1 [31:0] $end
$var parameter 32 2" ADDRESS_BIT_WIDTH $end
$var parameter 32 3" DATA_WIDTH $end
$var parameter 32 4" NB_OF_REGS $end
$var integer 32 5" i [31:0] $end
$upscope $end
$scope module ins_mem $end
$var wire 32 6" A [31:0] $end
$var wire 1 # en $end
$var wire 1 $ rstn $end
$var wire 32 7" read_data [31:0] $end
$var parameter 32 8" DATA_WIDTH $end
$var parameter 32 9" MEM_CAPACITY $end
$upscope $end
$upscope $end
$upscope $end
$enddefinitions $end
$comment Show the parameter values. $end
$dumpall
b1010 9"
b100000 8"
b100000 4"
b100000 3"
b101 2"
b100000 *"
b100000 ("
b100000 #"
b100000 |
b100000 w
b1010 s
b100000 r
b100011 h
b11 g
b1101111 f
b1100011 e
b10011 d
b110011 c
b1 b
b101 a
b11 `
b10 _
b0 ^
b100000 ]
b1 V
b101 U
b11 T
b10 S
b0 R
b100000 Q
b100000 M
b100000 I
b100000 E
b1010 D
b100000 C
b1010 B
b101 A
b10000 !
$end
#0
$dumpvars
b0 7"
b0 6"
b100000 5"
b0 1"
b0 0"
b0 /"
b0 ."
b0 -"
b0 ,"
b0 +"
b0 )"
b0 '"
b0 &"
b0 %"
b0 $"
bx ""
b0 !"
b0 ~
b0 }
b0 {
b0 z
b0 y
b0 x
b0 v
bx u
b1010 t
b0 q
b0 p
b0 o
bx n
xm
bx l
xk
bx j
b0 i
b0 \
0[
0Z
b0 Y
b0 X
b0 W
b0 P
b0 O
b0 N
b0 L
b0 K
b0 J
b0 H
b0 G
b1 F
b0 @
b0 ?
x>
b0 =
bx <
x;
b0 :
09
b0 8
b0 7
b0 6
b0 5
x4
bx 3
b0 2
b0 1
b0 0
0/
b0 .
b0 -
b0 ,
b0 +
b0 *
b0 )
b0 (
b0 '
z&
b1 %
0$
0#
0"
$end
#1000
b1010 t
b100000 5"
1"
#2000
0"
#3000
b100000 5"
b1010 t
1"
#4000
0"
#5000
1"
1$
#6000
0"
#7000
1"
#8000
0"
#9000
1"
#10000
bx 1
bx $"
bx /"
bx 5
bx q
bx ~
b11111111111111111111111111111100 2
b11111111111111111111111111111100 N
b11111111111111111111111111111100 &"
b11111111111111111111111111111100 8
b11111111111111111111111111111100 J
b11111111111111111111111111111100 z
b10000000000000 ?
b10000000000000 W
b10000000000000 o
b10000000000000 }
b11111111111111111111111111111100 =
b11111111111111111111111111111100 K
b11111111111111111111111111111100 x
b11111111111111111111111111111100 %"
b10000000000100 7
b10000000000100 O
b10000000000100 1"
1[
b10 \
0m
b0 j
0k
b1 3
b1 n
b1 ""
0;
1>
b0 <
b0 l
b0 u
14
b1 *
b1 {
b1 )"
b11111111110001001010001100000000 .
b11111111110001001010001100000000 v
b110 )
b110 ."
b11100 '
b11100 -"
b1001 (
b1001 ,"
1/
b10 0
b10 X
b11 ,
b11 Y
b1 :
b1 G
b1 y
b1 !"
09
b11111111110001001010001100000011 -
b11111111110001001010001100000011 7"
0"
1#
#11000
b10000000001100 ?
b10000000001100 W
b10000000001100 o
b10000000001100 }
b1000 2
b1000 N
b1000 &"
1Z
b1000 =
b1000 K
b1000 x
b1000 %"
0[
bx 3
bx n
bx ""
1;
b1 <
b1 l
b1 u
04
b11001001010010000000000 .
b11001001010010000000000 v
b1000 )
b1000 ."
b110 '
b110 -"
0/
b100011 ,
b100011 Y
b10 *
b10 {
b10 )"
b11001001010010000100011 -
b11001001010010000100011 7"
b1001 8
b1001 J
b1001 z
b10 :
b10 G
b10 y
b10 !"
b1 +
b1 H
b1 L
b1 +"
b1 6"
1"
#12000
0"
#13000
b0 5
b0 q
b0 ~
b0 2
b0 N
b0 &"
b0 ?
b0 W
b0 o
b0 }
b11 @
b11 P
b11 i
b0 1
b0 $"
b0 /"
b0 7
b0 O
b0 1"
b110 \
b10 j
b0 3
b0 n
b0 ""
0;
0>
bx <
bx l
bx u
14
b11000101110001000000000 .
b11000101110001000000000 v
b100 )
b100 ."
b101 (
b101 ,"
b110 0
b110 X
b110011 ,
b110011 Y
b11 *
b11 {
b11 )"
b11000101110001000110011 -
b11000101110001000110011 7"
b1010 8
b1010 J
b1010 z
b11 :
b11 G
b11 y
b11 !"
b10 +
b10 H
b10 L
b10 +"
b10 6"
1"
#14000
0"
#15000
x9
b11111111111111111111111111110100 =
b11111111111111111111111111110100 K
b11111111111111111111111111110100 x
b11111111111111111111111111110100 %"
1[
b0 \
b1 j
1k
bx 3
bx n
bx ""
b10 <
b10 l
b10 u
04
b11111110010000100000101010000000 .
b11111110010000100000101010000000 v
b10101 )
b10101 ."
b100 '
b100 -"
b100 (
b100 ,"
1/
b0 0
b0 X
b1100011 ,
b1100011 Y
bx01xx *
bx01xx {
bx01xx )"
b11111110010000100000101011100011 -
b11111110010000100000101011100011 7"
b11111111111111111111111111110111 8
b11111111111111111111111111110111 J
b11111111111111111111111111110111 z
b100 :
b100 G
b100 y
b100 !"
b11 +
b11 H
b11 L
b11 +"
b11 6"
1"
#16000
0"
#17000
bx 2
bx N
bx &"
bx 5
bx q
bx ~
bx ?
bx W
bx o
bx }
xZ
bx0 =
bx0 K
bx0 x
bx0 %"
bx 6
bx p
bx '"
bx 0"
bx 7
bx O
bx 1"
x[
bx \
bx0000000 .
bx0000000 v
bx )
bx ."
bx '
bx -"
bx (
bx ,"
x/
bx 0
bx X
bx ,
bx Y
bx *
bx {
bx )"
bx -
bx 7"
bx 8
bx J
bx z
bx :
bx G
bx y
bx !"
bx01xx +
bx01xx H
bx01xx L
bx01xx +"
bx01xx 6"
1"
#18000
0"
#19000
bx +
bx H
bx L
bx +"
bx 6"
1"
